module catalog

go 1.21.4

require (
	github.com/gin-contrib/cors v1.5.0
	github.com/gin-gonic/gin v1.9.1
	github.com/jinzhu/gorm v1.9.16
	github.com/joho/godotenv v1.5.1
	github.com/streadway/amqp v1.1.0
)

require (
	dario.cat/mergo v1.0.0 // indirect
	github.com/bep/godartsass v1.2.0 // indirect
	github.com/bep/godartsass/v2 v2.0.0 // indirect
	github.com/bep/golibsass v1.1.1 // indirect
	github.com/bytedance/sonic v1.10.2 // indirect
	github.com/chenzhuoyu/base64x v0.0.0-20230717121745-296ad89f973d // indirect
	github.com/chenzhuoyu/iasm v0.9.1 // indirect
	github.com/cli/safeexec v1.0.1 // indirect
	github.com/cosmtrek/air v1.49.0 // indirect
	github.com/creack/pty v1.1.21 // indirect
	github.com/fatih/color v1.16.0 // indirect
	github.com/fsnotify/fsnotify v1.7.0 // indirect
	github.com/gabriel-vasile/mimetype v1.4.3 // indirect
	github.com/gin-contrib/sse v0.1.0 // indirect
	github.com/go-playground/locales v0.14.1 // indirect
	github.com/go-playground/universal-translator v0.18.1 // indirect
	github.com/go-playground/validator/v10 v10.16.0 // indirect
	github.com/goccy/go-json v0.10.2 // indirect
	github.com/gohugoio/hugo v0.121.1 // indirect
	github.com/graphql-go/graphql v0.8.1 // indirect
	github.com/jinzhu/inflection v1.0.0 // indirect
	github.com/json-iterator/go v1.1.12 // indirect
	github.com/klauspost/cpuid/v2 v2.2.6 // indirect
	github.com/leodido/go-urn v1.2.4 // indirect
	github.com/lib/pq v1.1.1 // indirect
	github.com/mattn/go-colorable v0.1.13 // indirect
	github.com/mattn/go-isatty v0.0.20 // indirect
	github.com/mitchellh/mapstructure v1.5.0 // indirect
	github.com/modern-go/concurrent v0.0.0-20180306012644-bacd9c7ef1dd // indirect
	github.com/modern-go/reflect2 v1.0.2 // indirect
	github.com/pelletier/go-toml v1.9.5 // indirect
	github.com/pelletier/go-toml/v2 v2.1.1 // indirect
	github.com/spf13/afero v1.11.0 // indirect
	github.com/tdewolff/parse/v2 v2.7.7 // indirect
	github.com/twitchyliquid64/golang-asm v0.15.1 // indirect
	github.com/ugorji/go/codec v1.2.12 // indirect
	golang.org/x/arch v0.6.0 // indirect
	golang.org/x/crypto v0.16.0 // indirect
	golang.org/x/net v0.19.0 // indirect
	golang.org/x/sys v0.15.0 // indirect
	golang.org/x/text v0.14.0 // indirect
	google.golang.org/protobuf v1.31.0 // indirect
	gopkg.in/yaml.v3 v3.0.1 // indirect
)
